{
	"label": "专长",
	"entries": [
		{
			"id": "Acrobatic",
			"name": "特技专家",
			"description": "<p><em>你对于冲刺，跳跃和飞行颇有心得。</em></p>\n<p><strong>专长效果：</strong>对于所有的特技和飞行检定获得+2奖励。如果某技能受训等级10以上，对于该技能检定的奖励为+4。</p>"
		},
		{
			"id": "Acrobatic Steps",
			"name": "神行步",
			"description": "<p><em>你能轻松的越过障碍。</em></p>\n<p><strong>先决条件：</strong>敏捷15，灵狐步。</p><p><strong>专长效果：</strong>不论怎样移动，你每回合可以将至多15尺的复杂地形当作一般地形来移动。本专长可以与“灵狐步”效果叠加（即允许你每回合正常移动20尺的复杂地形）。</p>"
		},
		{
			"id": "Agile Maneuvers",
			"name": "灵巧武艺",
			"description": "<p><em>你学会了在战斗中使用你灵活的招式。</em></p>\n<p><strong>专长效果：</strong>: 用你的敏捷修正代替力量修正来决定CMB加值。</p><p><strong>通常qing'k情况：</strong>: 用你的力量修正和体型修正来决定战斗招式加值。</p>"
		},
		{
			"id": "Alertness",
			"name": "警觉",
			"description": "<p><em>你通常能注意到一些别人忽视的事情。</em></p>\n<p><strong>专长效果：</strong>在察觉和察言观色技能检定上获得+2奖励。如果某技能受训等级10以上，对于该技能检定的奖励为+4。</p>"
		},
		{
			"id": "Alignment Channel",
			"name": "阵营导能",
			"description": "<p><em>选择混乱，邪恶，善良或是秩序阵营。你能引导神力来影响对应阵营的异界生物。</em></p>\n<p><strong>先决条件：</strong>引导能量能力</p>\n<p><strong>专长效果：</strong>取代通常效果，你能选择引导能量来治疗或伤害一个特定阵营亚种的异界生物。你必须在每次引导能量时作出决定。若你选择治疗或伤害选定阵营亚种的异界生物，你的引导能量将不会对其他生物产生影响。治疗和伤害量、以及豁免DC不做改变。</p>\n<p><strong>特殊说明：</strong>你可以多次选择本专长，效果并不叠加。每次选择本专长时，可以选择一个新的阵营。当你引导能量时，你必须决定影响哪个阵营。</p>"
		},
		{
			"id": "Animal Affinity",
			"name": "动物亲和",
			"description": "<p><em>你对于与动物以及坐骑的工作颇有心得。</em></p>\n<p><strong>专长效果：</strong>在驯养动物和骑乘技能检定上获得+2奖励。如果某技能受训等级10以上，对于该技能检定的奖励为+4。</p>"
		},
		{
			"id": "Arcane Armor Mastery",
			"name": "披甲奥术熟稔",
			"description": "<p><em>你掌握在身着盔甲的时候施法的能力。</em></p>\n<p><strong>先决条件：</strong>披甲奥术训练，擅长中型盔甲，施法者等级7级。</p>\n<p><strong>专长效果：</strong>通过一个迅捷动作，对于本轮所有法术，减少由穿戴盔甲带来的施法失败机率10%。</p>"
		},
		{
			"id": "Arcane Armor Training",
			"name": "披甲奥术训练",
			"description": "<p><em>你学会了怎么在身着盔甲的时候施法。</em></p>\n<p><strong>先决条件：</strong>擅长轻型盔甲，施法者等级3级。</p>\n<p><strong>专长效果：</strong>通过一个迅捷动作，对于本轮所有法术，减少由穿戴盔甲带来的施法失败机率10%。</p>"
		},
		{
			"id": "Arcane Strike",
			"name": "奥术打击",
			"description": "<p><em>你用你的法力增强武器的魔法力量。</em></p>\n<p><strong>先决条件：</strong>奥术施法能力。</p>\n<p><strong>专长效果：</strong>通过一个迅捷动作，你能将你的部分魔法能量加持到你的武器上。你的武器伤害+1，且在面对伤害减免的时候被视为魔法武器。每拥有5个CL伤害加值+1，最高可以在20级的时候达到+5。</p>"
		},
		{
			"id": "Armor Proficiency, Heavy",
			"name": "擅长重型盔甲",
			"description": "<p><em>你对于穿戴重型盔甲颇有心得。</em></p>\n<p><strong>先决条件：</strong>擅长轻型盔甲，擅长中型盔甲。</p>\n<p><strong>专长效果：</strong>见擅长轻型盔甲。</p>\n<p><strong>通常情况：</strong>见擅长轻型盔甲。</a>.</p>\n<p><strong>特殊说明：</strong>对于战士和圣骑士，“擅长重型盔甲”作为奖励专长自动学会，他们无需选择这个专长。</p>"
		},
		{
			"id": "Armor Proficiency, Light",
			"name": "擅长轻型盔甲",
			"description": "<p><em>你对于穿戴轻型盔甲颇有心得。</em></p>\n<p><strong>专长效果：</strong>当你穿戴所擅长的盔甲时，只有基于敏捷或力量的技能才会受到防具检定减值。</p>\n<p><strong>通常说明：</strong>见擅长轻型盔甲。</p>\n<p><strong>特殊说明：</strong>野蛮人，牧师，德鲁伊，战士，圣骑士和游侠自动学会“擅长中型盔甲”作为奖励专长，他们无需选择这个专长。</p>"
		},
		{
			"id": "Armor Proficiency, Medium",
			"name": "擅长中型盔甲",
			"description": "<p><em>你对于穿戴中型盔甲颇有心得。</em></p>\n<p><strong>先决条件：</strong>擅长轻型盔甲</p>\n<p><strong>专长效果：</strong>见擅长轻型盔甲。</p>\n<p><strong>通常情况：</strong>见擅长轻型盔甲。</p>\n<p><strong>特殊说明：</strong>野蛮人，牧师，德鲁伊，战士，圣骑士和游侠自动学会“擅长中型盔甲”作为奖励专长，他们无需选择这个专长。</p>"
		},
		{
			"id": "Athletic",
			"name": "运动健将",
			"description": "<p><em>你拥有与生俱来的身体素质。</em></p>\n<p><strong>专长效果：</strong>对于攀爬和游泳检定获得+2奖励。如果某技能受训等级10以上，对于该技能检定的奖励为+4。</p>"
		},
		{
			"id": "Augment Summoning",
			"name": "增强召唤",
			"description": "<p><em>你的召唤生物将更加强健有力。</em></p>\n<p><strong>先决条件：</strong>法术专攻（咒法）。</p>\n<p><strong>专长效果：</strong>你用召唤法术召唤的任何生物获得力量和体质的+4增强加值。</p>"
		},
		{
			"id": "Bleeding Critical",
			"name": "流血重击",
			"description": "<p><em>你的重击能造成敌人流血不止。</em></p>\n<p><strong>先决条件：</strong>重击专攻，基本攻击加值+11。</p>\n<p><strong>专长效果：</strong>当你用挥砍或穿刺类武器造成重击时，你的敌人在受到重击伤害同时每轮承受2d6出血伤害。出血伤害可以通过DC15的医疗技能检定或者任何魔法治疗来制止。本专长效果可以叠加。</p>\n<p><strong>特殊说明：</strong>在没有掌握“重击熟稔”专长前，每次重击时你只能选择一种重击专长效果。</p>"
		},
		{
			"id": "Blind-Fight",
			"name": "盲斗",
			"description": "<p><em>你能够在不能清晰感知你的敌人的情况下，熟练地进行攻击。</em></p>\n<p><strong>专长效果：</strong>在近战时，每次因为隐蔽效果而造成的攻击失手，你都能重骰失手率以确定你是否击中。不可见的攻击者在近战攻击你时不会获得特殊优势。这就是说你不会失去AC的敏捷加值，对方也无法获得通常隐形下的攻击+2加值。但是不可见攻击者的远程攻击依然会有上述优势。此外，你在目盲状态下全速移动时无需进行特技技能检定。</p>\n<p><strong>通常情况：</strong>不可见的攻击者对你的攻击会让你失去AC的敏捷加值。黑暗或视觉受限的状况也会减慢你的移动速度。</p>\n<p><strong>特殊说明：</strong>“盲斗”专长对于那些处在‘闪现术’法术效果下的角色无效。</p>"
		},
		{
			"id": "Blinding Critical",
			"name": "致盲重击",
			"description": "<p><em>你的重击能让敌人目盲</em></p>\n<p><strong>先决条件：</strong>重击专攻，基本攻击加值+15。</p>\n<p><strong>专长效果：</strong>你的重击会让你的敌人永久目盲。成功的强韧豁免会将目盲效果减弱为目眩，持续1d4轮。强韧豁免的DC为“10+你的BAB”。本专长对视觉不依赖眼睛或多于两只眼睛的生物无效（虽然多次重击可能会使所有的眼睛目盲，由GM决定）。目盲可由‘医疗术’、‘再生术’、‘移除目盲’法术或类似能力治愈。</p>\n<p><strong>特殊说明：</strong>在没有掌握“重击熟稔”专长前，每次重击时你只能选择一种重击专长效果。</p>"
		},
		{
			"id": "Brew Potion",
			"name": "调制药剂",
			"description": "<p><em>你能制造魔法药水。</em></p>\n<p><strong>先决条件：</strong>施法者等级3级。</p>\n<p><strong>专长效果：</strong>你能基于任意3环以下、目标为一个或多个生物或物体的法术制造魔法药水。【译注：这就是说目标为〔自己〕的法术不能制药，譬如‘克敌机先’。】制造价值250gp以下的药水需要花费2个小时，否则每1000gp需花费1天。当你调制药剂的时候，由你设定其CL，该等级需满足施放该法术的条件并且不高于你当前的等级。你需要同等同于一半药水价值的原料来调制药剂。更多信息请参见魔法物品规则。</p><p>当你调制药剂时，你需要像施展该法术一样进行某些效果的选择。法术的目标就是使用药水者。</p>"
		},
		{
			"id": "Catch Off-Guard",
			"name": "随手武器",
			"description": "<p><em>你的敌人惊讶于你能熟练使用各种非常规武器和临时武器。</em></p>\n<p><strong>专长效果：</strong>在你使用临时武器进行近战攻击时不会受到任何惩罚。未武装的敌人对于你的临时近战武器攻击视为措手不及。</p>\n<p><strong>通常情况：</strong>当你使用临时武器时在攻击检定时受到-4的减值。</p>"
		},
		{
			"id": "Channel Smite",
			"name": "导能打击",
			"description": "<p><em>你能将神的力量引导到你的近战武器中。</em></p>\n<p><strong>先决条件：</strong>引导能量能力。</p>\n<p><strong>专长效果：</strong>在你进行近战攻击检定之前，你能以迅捷动作选择使用你的一种引导能量。如果你引导的是正能量并击中一个不死生物，该生物将受到等同于你引导正能量的额外伤害。反之，对于引导负能量击中活着的生物，造成同样的伤害。生物可以通过意志豁免来降低一半伤害。如果你未击中，引导的能量会消散。</p>"
		},
		{
			"id": "Cleave",
			"name": "顺势斩",
			"description": "<p><em>你挥动一次武器，命中两个相邻的敌人</em></p>\n<p><strong>先决条件：</strong>力量13，猛力攻击，基本攻击加值+1。</p>\n<p><strong>专长效果：</strong>每轮1次，以一个标准动作，你可以对攻击范围内的一个敌人以最高BAB进行一次攻击。若命中，在正常伤害的同时，你还能对攻击范围内、与其相邻的另一敌人再进行一次最高BAB攻击。若你这么做，在你下轮动作之前，会遭受AC-2的惩罚。</p>"
		},
		{
			"id": "Combat Casting",
			"name": "战斗施法",
			"description": "<p><em>你适应在受到威胁或分心的情况下施法。</em></p>\n<p><strong>专长效果：</strong>防御式施法或被擒抱时，施展法术或类法术能力的专注检定获得+4加值。</p>"
		},
		{
			"id": "Combat Expertise",
			"name": "寓守于攻",
			"description": "<p><em>以精准度的代价获得防御的提升。</em></p>\n<p><strong>先决条件：</strong>智力13。</p>\n<p><strong>专长效果：</strong>你可以选择用近战攻击和战技检定的-1减值来换取AC的+1闪避加值。每当BAB+4，攻击减值会再-1，AC加值也会再+1。你只能在以近战武器进行攻击或全力攻击时，才能选择使用这个专长；专长效果持续到你下轮开始。</p>"
		},
		{
			"id": "Combat Reflexes",
			"name": "战斗反射",
			"description": "<p><em>你能进行额外的藉机攻击。</em></p>\n<p><strong>专长效果：</strong>每轮你能获得等同于敏捷修正次数的额外藉机攻击。同样，你在措手不及的情况下，也能进行藉机攻击。</p>\n<p><strong>通常情况：</strong>没有这个专长的角色每轮只能进行1次藉机攻击，并且在措手不及时不能进行藉机攻击。</p>\n<p><strong>特殊说明：</strong>此专长不能让盗贼在一个回合中多次使用【乘势攻击】高级天赋的效果。</p><p>【速查】乘势攻击（Opportunist）：每轮1次，盗贼可以对刚刚被其他角色的近战伤害到的敌人作一次藉机攻击。该攻击计入盗贼每轮藉机攻击次数中。即使有“战斗反射”专长，盗贼也不能每轮使用此能力1次以上。</p>"
		},
		{
			"id": "Command Undead",
			"name": "命令死灵",
			"description": "<p><em>使用灵魂之力，驱役不死生物为你服务。</em></p>\n<p><strong>先决条件：</strong>【引导负能量】职业特性。</p>\n<p><strong>专长效果：</strong>以一个标准动作，你可以使用一次引导负能量来命令30尺内的不死生物。不死生物能以意志豁免来抵抗此效果，DC为“10+1/2你的牧师等级+魅力修正”，成功则不受影响。豁免失败的不死生物为你所控制，如同‘命令死灵’法术的效果一样。有智力的不死生物可以每天做一次豁免来抵抗你的命令。你可以控制任意数量的不死生物，只要它们总的HD不超过你的牧师等级。若你以此种方式使用引导能量，它将不会再造成其它效果（即不会治疗或伤害周边的生物）。若不死生物已经为其它生物所支配，当你们的命令相冲突时，你必须以魅力检定进行对抗。</p>"
		},
		{
			"id": "Craft Magic Arms and Armor",
			"name": "制造魔法武器和防具",
			"description": "<p><em>你能制造魔法盔甲，盾牌和武器。</em></p>\n<p><strong>先决条件：</strong>施法者等级5级。</p>\n<p><strong>专长效果：</strong>你能制造魔法盔甲，盾牌和武器。为一件武器、一套盔甲或盾牌附魔需要的时间为：附加的魔法特性的价格每增加1000gp，工期增加1天。加工所需耗材的价格为成品价格的一半。更多信息请参见魔法物品规则。将被附魔的武器、盔甲或盾牌必须为精制品，其成本不在上述之列。你还可以修理损坏的武器、盔甲或盾牌，只要你能制造它。修理耗费一半制造该物品所需的原料和时间。</p>"
		},
		{
			"id": "Craft Rod",
			"name": "制造权杖",
			"description": "<p><em>你能制造魔法权杖。</em></p>\n<p><strong>先决条件：</strong>施法者等级9级。</p>\n<p><strong>专长效果：</strong>你能制造魔法权杖。权杖的每1000gp基本价格将使制造时间延长1天。加工所需耗材的价值为成品价格的一半。更多信息请参见魔法物品规则。</p>"
		},
		{
			"id": "Craft Staff",
			"name": "制造法杖",
			"description": "<p><em>你能制造法杖。</em></p>\n<p><strong>先决条件：</strong>施法者等级11级。</p>\n<p><strong>专长效果：</strong>你能制造法杖。法杖的每1000gp基本价格将使制造时间延长1天。加工所需耗材的价值为成品价格的一半。新制造的法杖拥有10发充能。更多信息请参见魔法物品规则。</p>"
		},
		{
			"id": "Craft Wand",
			"name": "制造魔杖",
			"description": "<p><em>你能制造魔杖。</em></p>\n<p><strong>先决条件：</strong>施法者等级5级。</p>\n<p><strong>专长效果：</strong>你能制造任何你知道的4环或以下法术的魔杖。法杖的每1000gp基本价格将使制造时间延长1天。加工所需耗材的价值为成品价格的一半。新的魔杖拥有50发充能。更多信息请参见魔法物品规则。</p>"
		},
		{
			"id": "Craft Wondrous Item",
			"name": "制造奇物",
			"description": "<p><em>你能制造奇物，一种魔法物品。</em></p>\n<p><strong>先决条件：</strong>施法者等级3级。</p>\n<p><strong>专长效果：</strong>你能制造多种魔法奇物。奇物的每1000gp基本价格将使制造时间延长1天。加工所需耗材的价值为成品价格的一半。更多信息请参见魔法物品规则。你还能修理那些损坏的奇物。修理耗费一半制造该物品所需的原料和时间。</p>"
		},
		{
			"id": "Critical Focus",
			"name": "重击专攻",
			"description": "<p><em>你熟练于制造疼痛的艺术。</em></p>\n<p><strong>先决条件：</strong>基本攻击加值+9。</p>\n<p><strong>专长效果：</strong>在确定重击的攻击检定中，获得+4的环境加值。</p>"
		},
		{
			"id": "Critical Mastery",
			"name": "重击熟稔",
			"description": "<p><em>你的重击能引发两种重击效果。</em></p>\n<p><strong>先决条件：</strong>重击专攻，任意两项重击专长，战士14级。</p>\n<p><strong>专长效果：</strong>当你重击时，你在造成伤害的同时可以引发两项重击专长的效果。</p>\n<p><strong>通常情况：</strong>当你重击时，你在制造伤害的同时只能引发一项重击专长的效果。</p>"
		},
		{
			"id": "Dazzling Display",
			"name": "炫目技巧",
			"description": "<p><em>你对于最热衷的武器的掌握能使你的敌人眼花缭乱。</em></p>\n<p><strong>先决条件：</strong>武器专攻，擅长对应的武器。</p>\n<p><strong>专长效果：</strong>当装备了你所拥有“武器专攻”专长的武器时，你能以整轮动作来展示你华丽的技巧。你将对30尺内所有能看见你的敌人做出挫败士气的威吓检定。</p>"
		},
		{
			"id": "Deadly Aim",
			"name": "致命瞄准",
			"description": "<p><em>通过减少命中率，你能对准敌人的弱点做出极具威胁的远程攻击。</em></p>\n<p><strong>先决条件：</strong>敏捷13，基本攻击加值+1。</p>\n<p><strong>专长效果：</strong>你可以选择使所有的远程攻击检定受到-1的减值以换取伤害+2。你的BAB每+4，减值再-1，伤害再+2。你必须在攻击检定前选择使用本专长，效果持续到你的下一轮。本专长对于接触攻击或不造成HP伤害的攻击无效。</p>"
		},
		{
			"id": "Deadly Stroke",
			"name": "致命绝杀",
			"description": "<p><em>你能用一次精确的击打，快速而致命的终结你的敌人。</em></p>\n<p><strong>先决条件：</strong>炫目技巧，高等武器专攻，粉碎打击，武器专攻，擅长对应的武器，基本攻击加值+11。</p>\n<p><strong>专长效果：</strong>作为一个标准动作，以你所拥有“高等武器专攻”专长的武器，对一个处于震慑或措手不及状态的敌人做出攻击。如果击中，将造成双倍普通伤害以及1点体质出血。额外伤害和出血不会因重击而加倍。</p>"
		},
		{
			"id": "Deafening Critical",
			"name": "致聋重击",
			"description": "<p><em>你的重击令命中的敌人失去听力。</em></p>\n<p><strong>先决条件：</strong>重击专攻，基本攻击加值+13。</p>\n<p><strong>专长效果：</strong>每当你对一个敌人成功造成重击时，会令该生物永久失聪。成功通过强韧豁免可使耳聋效果减至1轮。强韧豁免的DC为“10+你的BAB”。此专长对已聋及无听觉的生物无效。耳聋可由‘医疗术’、‘再生术’、‘移除耳聋’法术或类似能力治愈。</p>\n<p><strong>特殊说明：</strong>在没有掌握“重击熟稔”专长前，每次重击时你只能选择一种重击专长效果。</p>"
		},
		{
			"id": "Deceitful",
			"name": "诈欺师",
			"description": "<p><em>你善于欺骗他人，无论谎言还是乔装易容。</em></p>\n<p><strong>专长效果：</strong>你在所有唬骗和易容技能检定上获得+2加值。如果某技能受训等级10以上，则对应加值改为+4。</p>"
		},
		{
			"id": "Defensive Combat Training",
			"name": "防御式战斗训练",
			"description": "<p><em>你善于在面对各种战技时保护自己。</em></p>\n<p><strong>专长效果：</strong>你在计算战技防御时可以用你的总生命骰数代替BAB。</p>"
		},
		{
			"id": "Deflect Arrows",
			"name": "拨挡飞箭",
			"description": "<p><em>敏捷13，精通徒手打击。</em></p>\n<p><strong>先决条件：</strong>敏捷13，精通徒手打击。</p>\n<p><strong>专长效果：</strong>你必须至少空出一只手（没有拿任何东西）才能使用本专长。当你被远程武器击中时，每轮有一次机会挡掉而不受伤害。你必须察觉到该攻击，且不能处于措手不及状态。拨挡远程武器不算是一个动作。通常大型远程武器（例如巨石或弩炮巨矢）和源自天生攻击或法术效果的远程攻击无法被挡开。</p>"
		},
		{
			"id": "Diehard",
			"name": "顽强",
			"description": "<p><em>你尤其难以被杀掉。你不但在受到极其严重的伤害时伤势会自动稳定下来，还能够保持清醒并继续行动，即便已经摸到了死亡的门坎。</em></p>\n<p><strong>先决条件：</strong>坚忍。</p>\n<p><strong>专长效果：</strong>当HP降至0以下，但还没有死亡时，你可以自动稳定伤势，不须每回合作体质检定避免HP流失。你可以选择如同瘫痪状态一般行动，而非濒死。你必须在HP降至负数时立刻决定是否采取瘫痪状态的动作，若否，你将立刻陷入昏迷。使用本专长时，你视同恍惚状态。你每轮可以进行一次移动动作且不受任何额外伤害，但标准动作（或任何其他费力的行动，包括某些迅捷动作，例如施展瞬发法术）将使你在动作完成受到1点伤害。当你的HP负值降至等于或超过你的体质值，你将立刻死亡。</p>\n<p><strong>通常情况：</strong>没有本专长的人物在HP降至负值时为昏迷且濒死状态。</p>"
		},
		{
			"id": "Disruptive",
			"name": "扰法者",
			"description": "<p><em>你受过专门的训练，令靠近你的敌人的施法者难以安全施展法术。</em></p>\n<p><strong>先决条件：</strong>战士6级。</p>\n<p><strong>专长效果：</strong>所有你威胁范围内的敌人进行防御式施法的专注DC+4。此针对防御式施法的加值仅当你能够确认敌人的位置、并能够做出藉机攻击时才生效。若你每轮仅能够进行1次藉机攻击并且已经藉机攻击过，则加值不生效。</p>"
		},
		{
			"id": "Dodge",
			"name": "闪避",
			"description": "<i>你的训练和反应令你能够迅速闪避攻击。</i><hr><p>先决条件：敏捷13。<br>专长效果：你可以在AC上获得+1闪避加值。若你失去AC的敏捷加值时，也会同时失去此专长的加值。</p>"
		},
		{
			"id": "Double Slice",
			"name": "双重切割",
			"description": "<p><em>你的副手武器在双持武器攻击时更加强力。</em></p>\n<p><strong>先决条件：</strong>敏捷15，双武器格斗。</p>\n<p><strong>专长效果：</strong>通常你在副手武器上只能将力量修正的一半计入伤害投骰。</p>\n<p><strong>通常情况：</strong>通常你在副手武器上只能将力量修正的一半计入伤害投骰。</p>"
		},
		{
			"id": "Elemental Channel",
			"name": "元素导能",
			"description": "<p><em>选择一种元素类型，例如气、土、火或者水。你能够引导你的神圣能量伤害或治疗你所选择的元素类型的异界生物。</em></p>\n<p><strong>先决条件：</strong>【引导能量】职业特性。</p>\n<p><strong>专长效果：</strong>作为普通效果的替代，你可以选择在引导能量时治疗或伤害你所决定的元素类型的异界生物。你必须在每次引导能量时做出选择。若你选择治疗或伤害特定元素类型的生物，则你的引导能量对其他生物不产生任何效果。除此之外，治疗或造成的伤害点数及令伤害减半的豁免DC均保持不变。</p>\n<p><strong>特殊说明：</strong>你可以多次选择本专长，其效果并不累加。每次你都必须选择一个新的元素类型。</p>"
		},
		{
			"id": "Empower Spell",
			"name": "法术强效",
			"description": "<p><em>你可以增强法术的力量，使其造成更大的伤害。</em></p>\n<p><strong>专长效果：</strong>搭配此专长时，法术效果中的所有可变量值皆增加一半。但本专长不影响豁免检定与对抗检定，对没有变量的法术也无影响。强效的法术须占用高于原本2个环位的法术位。</p>"
		},
		{
			"id": "Endurance",
			"name": "坚忍",
			"description": "<p><em>严酷的环境或者长时间的竭尽全力不会轻易令你陷入疲劳。</em></p>\n<p><strong>专长效果：</strong>本专长可使以下检定获得+4加值：游泳时疲劳造成非致命伤害的技能检定、持续跑步时的体质检定、强行军造成非致命伤害的体质检定、憋气时的体质检定、饥饿或口渴造成非致命伤害的体质检定、冷热环境造成非致命伤害的强韧检定、窒息造成非致命伤害的强韧检定。此外，拥有本项专长者穿着轻型或中型盔甲睡觉也不会陷入疲乏状态。</p>\n<p><strong>通常情况：</strong>没有本专长者若穿着中型以上的盔甲睡觉，隔天将自动陷入疲乏状态。</p>"
		},
		{
			"id": "Enlarge Spell",
			"name": "法术增远",
			"description": "<p><em>你可将法术施展得更远。</em></p>\n<p><strong>专长效果：</strong>本专长可将近距、中距与远距法术的距离加倍。搭配本专长的近距法术距离为“50尺+5尺/每等级”、中距法术距离为“200尺+20尺/每等级”，而远距法术距离为“800尺+80尺/每等级”。增远的法术须占用高于原本1个环位的法术位。本专长对于与距离无关，或不属于近距、中距、远距的法术没有效果。</p>"
		},
		{
			"id": "Eschew Materials",
			"name": "施法免材",
			"description": "<p><em>你施展法术不需低级的法术材料成分。</em></p>\n<p><strong>专长效果：</strong>若欲施展的法术其材料价格低于1gp，你不需耗用材料亦可施法。但施法依旧会引发藉机攻击。若欲施展的法术其材料价格高于1金币，则你需要按照一般规则持有材料成分才能施法。</p>"
		},
		{
			"id": "Exhausting Critical",
			"name": "力竭重击",
			"description": "<p><em>你的重击令命中的敌人陷入力竭。</em></p>\n<p><strong>先决条件：</strong>重击专攻，疲乏重击，基本攻击加值+15。</p>\n<p><strong>专长效果：</strong>每当你对一个敌人成功造成重击时，该生物立即陷入力竭状态。本专长对已经力竭的生物无效。</p>\n<p><strong>特殊说明：</strong>在没有掌握“重击熟稔”专长前，每次重击时你只能选择一种重击专长效果。</p>"
		},
		{
			"id": "Exotic Weapon Proficiency",
			"name": "擅长异种武器",
			"description": "<p><em>选择一种异种武器，例如刺链或长鞭。你了解如何使用该种异种武器进行战斗，并能够利用该异种武器可能提供的特性和技巧。</em></p>\n<p><strong>先决条件：</strong>基本攻击加值+1。</p>\n<p><strong>专长效果：</strong>使用该异种武器的攻击检定正常。</p>\n<p><strong>通常情况：</strong>使用不擅长的武器其攻击检定有-4减值。</p>\n<p><strong>特殊说明：</strong>你可以多次选择本专长，每次都需要选择一种新的异种武器。</p>"
		},
		{
			"id": "Extend Spell",
			"name": "法术延时",
			"description": "<p><em>此专长可使法术效果的持续时间加长。</em></p>\n<p><strong>专长效果：</strong>搭配此专长的法术持续时间加倍。持续时间为专注、立即或永久的法术不受本专长影响。延时的法术须占用高于原本1个环位的法术位。</p>"
		},
		{
			"id": "Extra Channel",
			"name": "额外引导",
			"description": "<p><em>你能更频繁地引导能量。</em></p>\n<p><strong>先决条件：</strong>【引导能量】职业特性。</p>\n<p><strong>专长效果：</strong>你每日能够多引导能量2次。</p>\n<p><strong>特殊说明：</strong>若一名拥有引导能量能力的圣骑士选择本专长，则她可以每日多使用4次圣疗，但仅能用于引导正能量。</p>"
		},
		{
			"id": "Extra Ki",
			"name": "额外斗气",
			"description": "<p><em>你每日可以更频繁地使用气池。</em></p>\n<p><strong>先决条件：</strong>【气运丹田】职业特性。</p>\n<p><strong>专长效果：</strong>你的气池增加2点。</p>\n<p><strong>特殊说明：</strong>你可以多次选择本专长，其效果累计。</p>"
		},
		{
			"id": "Extra Lay On Hands",
			"name": "额外圣疗",
			"description": "<p><em>你可以更频繁的使用圣疗能力。</em></p>\n<p><strong>先决条件：</strong>【圣疗】职业特性。</p>\n<p><strong>专长效果：</strong>你每日可以多使用圣疗2次。</p>\n<p><strong>特殊说明：</strong>你可以多次选择本专长，其效果累计。</p>"
		},
		{
			"id": "Extra Mercy",
			"name": "额外恩惠",
			"description": "<p><em>你的圣疗能力额外获得一种恩惠。</em></p>\n<p><strong>先决条件：</strong>【圣疗】职业特性，【恩惠】职业特性。</p>\n<p><strong>专长效果：</strong>选择一种你能够使用的额外恩惠。当你使用圣疗为一个目标治疗伤害时，目标额外获得该恩惠的效果。</p>\n<p><strong>特殊说明：</strong>你可以多次选择本专长，其效果不累计。每次你选择本专长时，选择一个新的恩惠。</p>"
		},
		{
			"id": "Extra Rage",
			"name": "额外狂暴",
			"description": "<p><em>你可以更久地狂暴。</em></p>\n<p><strong>先决条件：</strong>【狂暴】职业特性。</p>\n<p><strong>专长效果：</strong>你可以每日多狂暴6轮。</p>\n<p><strong>特殊说明：</strong>你可以多次选择本专长，其效果累计。</p>"
		},
		{
			"id": "Far Shot",
			"name": "远程射击",
			"description": "<p><em>你长距离射击时比常人更准。</em></p>\n<p><strong>先决条件：</strong>近距射击。</p>\n<p><strong>专长效果：</strong>当你使用远程武器时，距离每增加一个射程增量你仅受到-1减值。</p>\n<p><strong>通常情况：</strong>你与目标之间距离每增加一个射程增量则受-2减值。</p>"
		},
		{
			"id": "Fleet",
			"name": "快速移动",
			"description": "<p><em>你比常人要快。</em></p>\n<p><strong>专长效果：</strong>当穿着轻型或不穿盔甲时，你的基本移动速度增加5尺。当你处于中度或重度负荷时失去本专长效果。</p>\n<p><strong>特殊说明：</strong>你可以多次选择此专长，其效果累计。</p>"
		},
		{
			"id": "Forge Ring",
			"name": "锻造戒指",
			"description": "<p><em>你可以制造带有各式魔法效果的戒指。</em></p>\n<p><strong>先决条件：</strong>施法者等级7级。</p>\n<p><strong>专长效果：</strong>你可以制造魔法戒指。锻造一枚戒指需花费每1000gp基本价格1天的时间。要锻造一枚戒指，你需要花费其基本价格一半的天然材料。更多信息请参见魔法物品规则。只要你有能力制造同样的东西，便可以修复损坏的魔法戒指。你必须支付相当于制造时一半的耗材和时间。</p>"
		},
		{
			"id": "Gorgon’s Fist",
			"name": "蛇形拳",
			"description": "<p><em>你可以通过击中特定部位令对手动摇。</em></p>\n<p><strong>先决条件：</strong>精通徒手打击，蝎形拳，基本攻击加值+6。</p>\n<p><strong>专长效果：</strong>以一个标准动作对被减速的敌人（例如被“蝎形拳”专长减速）进行一次徒手近战攻击。若该次攻击命中，则正常造成伤害的同时令目标陷入恍惚状态，直到你的下轮结束，除非对方成功通过DC为“10+1/2你的角色等级+感知修正”的强韧豁免。本专长对已陷入恍惚的目标无效。</p>"
		},
		{
			"id": "Great Cleave",
			"name": "大顺势斩",
			"description": "<p><em>你可以在一击中攻击数个邻近的敌人。</em></p>\n<p><strong>先决条件：</strong>力量13，顺势斩，猛力攻击，基本攻击加值+4。</p>\n<p><strong>专长效果：</strong>你可以用一个标准动作，使用最高BAB对一个近战攻击范围内的敌人进行一次攻击。若命中，则你可以继续对临近前一个敌人的敌人进行攻击，该敌人也同样需在你的触及范围内；如此进行下去。你以此能力对每个敌人仅能攻击1次。当你使用此专长时，你在下轮前AC受-2减值。</p>"
		},
		{
			"id": "Great Fortitude",
			"name": "精通强韧加强",
			"description": "<i>你能够利用内在之物抵御疾病、毒素、和其他强烈的伤害。</i><hr><p>先决条件：强韧加强。<br>专长效果：每日1次，你可以重掷一次强韧检定。你必须在宣布结果前选择使用本能力。你必须接受重掷的结果，即使比原来的结果还要差。</p>"
		},
		{
			"id": "Greater Bull Rush",
			"name": "高等冲撞",
			"description": "<p><em>你的冲撞令敌人失去平衡。</em></p>\n<p><strong>先决条件：</strong>精通冲撞，猛力攻击，基本攻击加值+6，力量13。</p>\n<p><strong>专长效果：</strong>你在冲撞检定中获得+2加值。此加值与“精通冲撞”专长带来的加值累计。当你冲撞敌人时，他的移动会引发所有你的同伴的藉机攻击（但不包括你）。</p>\n<p><strong>通常情况：</strong>冲撞带来的生物移动不会引发藉机攻击。</p>"
		},
		{
			"id": "Greater Disarm",
			"name": "高等卸武",
			"description": "<p><em>你可以将敌人手中的武器击飞。</em></p>\n<p><strong>先决条件：</strong>寓守于攻，精通卸武，基本攻击加值+6，智力13。</p>\n<p><strong>专长效果：</strong>你在卸武检定中获得+2加值，此加值与“精通卸武”专长带来的加值累计。每当你成功卸除敌人武器时，该武器由其持有者位置向随机方向飞出15尺。</p>\n<p><strong>通常情况：</strong>被卸除的武器和装备落在被卸除的生物脚下。</p>"
		},
		{
			"id": "Greater Feint",
			"name": "高等虚招",
			"description": "<p><em>你擅长令敌人对你的攻击反应过度。</em></p>\n<p><strong>先决条件：</strong>寓守于攻，精通虚招，基本攻击加值+6，智力13。</p>\n<p><strong>专长效果：</strong>当你对敌人使用虚招令其失去AC的敏捷加值时，他直到下轮你的行动开始时都失去该加值，而不是原本的仅持续到你的下一次攻击。</p>\n<p><strong>通常情况：</strong>被你的虚招误导的生物失去AC的敏捷加值，直到你的下一次攻击。</p>"
		},
		{
			"id": "Greater Grapple",
			"name": "高等擒抱",
			"description": "<p><em>维持擒抱是你的第二天性。</em></p>\n<p><strong>先决条件：</strong>精通擒抱，精通徒手打击，基本攻击加值+6，敏捷13。</p>\n<p><strong>专长效果：</strong>你在擒抱检定中获得+2加值，此加值与“精通擒抱”专长带来的加值累计。每当你成功擒抱一个生物，维持擒抱是一个移动动作。本专长允许你每轮进行两次擒抱检定（移动、伤害或压制你的对手），但你仅需要检定成功其中一次便可以维持擒抱。</p>\n<p><strong>通常情况：</strong>维持擒抱是一个标准动作。</p>"
		},
		{
			"id": "Greater Overrun",
			"name": "高等闯越",
			"description": "<p><em>敌人必须匆忙闪开以躲避你的危险移动。</em></p>\n<p><strong>先决条件：</strong>精通闯越，猛力攻击，基本攻击加值+6，力量13。</p>\n<p><strong>专长效果：</strong>你在闯越敌人检定上获得+2加值，本加值与“精通闯越”专长带来的加值累计。当你闯越敌人时，他们若被你撞倒则会引发藉机攻击。</p>\n<p><strong>通常情况：</strong>被闯越撞倒的生物不会引发藉机攻击。</p>"
		},
		{
			"id": "Greater Penetrating Strike",
			"name": "高等穿透打击",
			"description": "<p><em>你的攻击能够穿透大多数敌人的防御。选择一个已在穿透打击专长中选择过的武器类型。</em></p>\n<p><strong>先决条件：</strong>穿透打击，武器专攻，战士等级16。</p>\n<p><strong>专长效果：</strong>你用选择类型的武器攻击时忽略最高10点伤害减免。但对不针对特定类型的伤害减免时，效果减少到5点（例如“10/-”）。</p>"
		},
		{
			"id": "Greater Shield Focus",
			"name": "高等盾牌专攻",
			"description": "<p><em>你擅长用盾牌挡开攻击</em></p>\n<p><strong>先决条件：</strong>盾牌专攻，擅长盾牌，基本攻击加值+1，战士等级8。</p>\n<p><strong>专长效果：</strong>任何盾牌带来的AC加值增加1。此加值与“盾牌专攻”带来的加值累计。</p>"
		},
		{
			"id": "Greater Spell Focus",
			"name": "高等法术专攻",
			"description": "<p><em>从已有“法术专攻”的法术学派中选择一个，你施展的该学派的法术很难被抵抗。</em></p>\n<p><strong>先决条件：</strong>法术专攻。</p>\n<p><strong>专长效果：</strong>所选学派的法术豁免检定DC+1。此加值可与“法术专攻”累加。</p>\n<p><strong>特殊说明：</strong>你可以多次选择本专长，但并非累加效果。每次你选择本专长时必须选择一个新的已有“专攻法术”专长的不同学派。</p>"
		},
		{
			"id": "Greater Spell Penetration",
			"name": "高等法术穿透",
			"description": "<p><em>你的法术威力强大，较易穿透法术抗力。</em></p>\n<p><strong>先决条件：</strong>法术穿透。</p>\n<p><strong>专长效果：</strong>施法时若受术者有法术抗力，你的施法者等级检定（1d20+CL）可获得+2加值。此加值可与“法术穿透”累加。</p>"
		},
		{
			"id": "Greater Sunder",
			"name": "高等破武",
			"description": "<p><em>你可以自由攻击被你击倒的对手。</em></p>\n<p><strong>先决条件：</strong>精通破武，猛力攻击，基本攻击加值+6，力量13。</p>\n<p><strong>专长效果：</strong>你的破武检定获得+2加值，此加值与“精通破武”专长带来的加值累计。每当你令一把武器、盾牌或盔甲彻底损毁时，其持用者将承受多余的伤害部分。若你决定令物品剩余1点HP则不会有任何伤害被传递。</p>"
		},
		{
			"id": "Greater Trip",
			"name": "高等绊摔",
			"description": "<p><em>你可以自由攻击被你击倒的对手。</em></p>\n<p><strong>先决条件：</strong>寓守于攻，精通绊摔，基本攻击加值+6，智力13。</p>\n<p><strong>专长效果：</strong>你的绊摔检定获得+2加值，此加值与“精通绊摔”专长带来的加值累计。每当你成功绊摔一个敌人时，该敌人会引发藉机攻击。</p>\n<p><strong>通常情况：</strong>生物不会因被绊摔而引发藉机攻击。</p>"
		},
		{
			"id": "Greater Two-Weapon Fighting",
			"name": "高等双武器格斗",
			"description": "<p><em>你是双武器战斗的高手。</em></p>\n<p><strong>先决条件：</strong>敏捷19，精通双武器格斗，双武器格斗，基本攻击加值+11。</p>\n<p><strong>专长效果：</strong>你可使用副手武器作第三次攻击，但受到-10减值。</p>"
		},
		{
			"id": "Greater Vital Strike",
			"name": "高等要害打击",
			"description": "<p><em>你在一击中造成不可思议的巨大伤害。</em></p>\n<p><strong>先决条件：</strong>精通要害打击、要害打击、基本攻击加值+16</p>\n<p><strong>专长效果：</strong>你可以用一个标准动作以你的最高BAB做出一次攻击，并造成额外的伤害。丢伤害骰四次并将结果合计，但力量、武器属性（例如〔炽焰〕附魔）及基于精准的攻击（例如偷袭）带来的伤害则不翻倍。本专长带来的额外伤害在重击时不翻倍（尽管其他伤害加值正常翻倍计算）。</p>"
		},
		{
			"id": "Greater Weapon Focus",
			"name": "高等武器专攻",
			"description": "<p><em>从已有“武器专攻”的武器类型中选择一个，也可以选徒手击打或擒抱，对此种武器你是个中高手。</p>\n<p><strong>先决条件：</strong>对应武器的擅长武器、武器专攻，战士等级8。</p>\n<p><strong>专长效果：</strong>使用特定武器时攻击检定+1。此加值可与其他攻击加值累加，包括“武器专攻”的加值。</p>\n<p><strong>特殊说明：</strong>你可以多次选择本专长，但并非累加效果；每次选择本专长时需选择一个新的武器类型。</p>"
		},
		{
			"id": "Greater Weapon Specialization",
			"name": "高等武器专精",
			"description": "<p><em>从已有“武器专精”的武器中选择一个，也可以选徒手击打或擒抱，使用此种武器将可造成更多伤害。</p>\n<p><strong>先决条件：</strong>对应武器的擅长武器、武器专攻、高等专攻、武器专精，战士等级12。</p>\n<p><strong>专长效果：</strong>使用特定武器时伤害+2，且可与其他伤害加值累加，包括“武器专精”的加值。</p>\n<p><strong>特殊说明：</strong>你可以多次选择本专长，但并非累加效果；每次选择本专长时需选择一个新的武器类型。</p>"
		},
		{
			"id": "Heighten Spell",
			"name": "法术升阶",
			"description": "<p><em>你可以使法术表现得比原本等级高。</em></p>\n<p><strong>专长效果：</strong>本专长可以使法术表现得比原本等级高（最高不可超过9环）。与其他超魔专长不同的是，法术升阶可以确实提升法术的有效等级。法术效果中所有与法术等级有关的变量（如法术豁免检定DC或穿透‘次级法术无效结界’法术的能力）都以升阶后的法术等级计算。升阶法术准备和释放的难度都以提升后的法术等级计算。</p>"
		},
		{
			"id": "Improved Bull Rush",
			"name": "精通冲撞",
			"description": "<p><em>你熟知撞退对手的技巧。</em></p>\n<p><strong>先决条件：</strong>力量13，猛力攻击，基本攻击加值+1</p>\n<p><strong>专长效果：</strong>当你进行冲撞时，防御者无法对你发动藉机攻击。此外在冲撞检定中你获得+2加值。你在对抗冲撞的战技防御（CMD）上同样获得+2加值。</p>\n<p><strong>通常情况：</strong>你的冲撞战技会引发藉机攻击。</p>"
		},
		{
			"id": "Improved Channel",
			"name": "精通导能",
			"description": "<p><em>你引导的能量难以被抵抗。</em></p>\n<p><strong>先决条件：</strong>【引导能量】职业特性。</p>\n<p><strong>专长效果：</strong>你引导能量的豁免DC+2。</p>"
		},
		{
			"id": "Improved Counterspell",
			"name": "精通法术反制",
			"description": "<p><em>你擅长用类似法术反制他人的法术。</em></p>\n<p><strong>专长效果：</strong>你可以使用比目标法术高1环的相同学派法术进行反制。</p>\n<p><strong>通常情况：</strong>无此专长的人物只能用同样或特定的法术才能进行反制。</p>"
		},
		{
			"id": "Improved Critical",
			"name": "精通重击",
			"description": "<p><em>你使用特定的武器攻击起来更易击中敌人要害。</em></p>\n<p><strong>先决条件：</strong>擅长选择的特定武器，基本攻击加值+8。</p>\n<p><strong>专长效果：</strong>使用特定武器的重击威胁范围加倍。</p>\n<p><strong>特殊说明：</strong>你可以多次选择本专长，但并非累加效果。每次你选择本专长时，需选择一个新的武器类型。本专长不可与任何增加重击威胁范围的效果累加。</p>"
		},
		{
			"id": "Improved Disarm",
			"name": "精通卸武",
			"description": "<p><em>你擅长在战斗中卸除对手的武器。</em></p>\n<p><strong>先决条件：</strong>智力13，寓守于攻。</p>\n<p><strong>专长效果：</strong>当你试图卸除对手的武器时，不会引发对方的藉机攻击。此外，在你卸武检定上获得+2加值。你在对抗卸武的战技防御上同样获得+2加值。</p>\n<p><strong>通常情况：</strong>你在使用卸武战技时会引发藉机攻击。</p>"
		},
		{
			"id": "Improved Familiar",
			"name": "进阶魔宠",
			"description": "<p><em>本专长使得施法者能够从非标准列表中获得一个强力魔宠，但仅当他们可以正常获得一个新魔宠时才可使用本专长。</em></p>\n<p><strong>先决条件：</strong>有能力获得新魔宠，阵营相符，足够高的等级（见下）。</p>\n<p><strong>专长效果：</strong>选择魔宠时，施法者也可选择下表中生物。施法者可选择的魔宠在每个阵营轴线（即秩序到混乱、善良到邪恶）上分别至多只能和本人相差一阶。进阶魔宠其他的规则都与普通魔宠相同，但有两个例外：如果生物的类型不是动物，则其类型不改变；且强化的魔宠并不获得与他们同类交谈的能力（尽管他们中许多已具有交流的能力）。</p>"
		},
		{
			"id": "Improved Feint",
			"name": "精通虚招",
			"description": "<p><em>你擅长于战斗中愚弄对手。</em></p>\n<p><strong>先决条件：</strong>智力13，寓守于攻。</p>\n<p><strong>专长效果：</strong>你在战斗中能够以移动动作进行虚招的唬骗检定。</p>\n<p><strong>通常情况：</strong>战斗中的虚招为标准动作。</p>"
		},
		{
			"id": "Improved Grapple",
			"name": "精通擒抱",
			"description": "<p><em>你擅长于擒抱住对手。</em></p>\n<p><strong>先决条件：</strong>敏捷13，精通徒手打击。</p>\n<p><strong>专长效果：</strong>你使用擒抱战技时不会引发藉机攻击。此外你在擒抱检定上获得+2加值，同时在对抗擒抱的战技防御上获得+2加值。</p>\n<p><strong>通常情况：</strong>试图使用擒抱战技会引发藉机攻击。</p>"
		},
		{
			"id": "Improved Great Fortitude",
			"name": "精通强韧加强",
			"description": "<p><em>你能够利用内在之物抵御疾病、毒素、和其他强烈的伤害。</em></p>\n<p><strong>先决条件：</strong>强韧加强。</p>\n<p><strong>专长效果：</strong>每日1次，你可以重掷一次强韧检定。你必须在宣布结果前选择使用本能力。你必须接受重掷的结果，即使比原来的结果还要差。</p>"
		},
		{
			"id": "Improved Initiative",
			"name": "精通先攻",
			"description": "<i>你对战斗的反应很快，使你能够迅速对危险做出反应。</i><hr><p>专长效果：先攻检定获得+4加值。</p>"
		},
		{
			"id": "Improved Iron Will",
			"name": "精通钢铁意志",
			"description": "<p><em>你的清晰思维使你能够抵抗心灵的攻击。</em></p>\n<p><strong>先决条件：</strong>钢铁意志。</p>\n<p><strong>专长效果：</strong>每日1次，你可以你可以重掷一次意志检定。你必须在宣布结果前选择使用本能力。你必须接受重掷的结果，即使比原来的结果还要差。</p>"
		},
		{
			"id": "Improved Lightning Reflexes",
			"name": "精通闪电反射",
			"description": "<p><em>你有避开所有周遭危险的本事。</em></p>\n<p><strong>先决条件：</strong>闪电反射。</p>\n<p><strong>专长效果：</strong>每日1次，你可以你可以重掷一次反射检定。你必须在宣布结果前选择使用本能力。你必须接受重掷的结果，即使比原来的结果还要差。</p>"
		},
		{
			"id": "Improved Overrun",
			"name": "精通闯越",
			"description": "<p><em>你善于击倒对手。</em></p>\n<p><strong>先决条件：</strong>力量13，猛力攻击，基本攻击加值+1。</p>\n<p><strong>专长效果：</strong>当你试图使用闯越战技时，不会引发藉机攻击。此外你在闯越检定获得+2加值，同时在对抗闯越的战技防御上获得+2加值。你试图闯越的目标无法躲避你。</p>\n<p><strong>通常情况：</strong>正常情况使用闯越战技会引发藉机攻击。</p>"
		},
		{
			"id": "Improved Precise Shot",
			"name": "精通精准射击",
			"description": "<p><em>你的远程攻击可无视掩蔽与隐蔽的影响。除了完全掩蔽和隐蔽。</em></p>\n<p><strong>先决条件：</strong>敏捷19，近距射击，精准射击，基本攻击加值+11。</p>\n<p><strong>专长效果：</strong>你的远程攻击可忽略大多数掩蔽与隐蔽所提供的AC加值与失手机率，除了全掩蔽与全隐蔽，它们将照常对远程攻击造成影响。</p>\n<p><strong>通常情况：</strong>参见关于掩蔽和隐蔽的正常规则。</p>"
		},
		{
			"id": "Improved Shield Bash",
			"name": "精通盾击",
			"description": "<p><em>即便你使用盾牌猛击，你还是可以正常使用它保护自身。</em></p>\n<p><strong>先决条件：</strong>擅长盾牌。</p>\n<p><strong>专长效果：</strong>当你使用盾牌猛击时，其对AC的盾牌加值依旧适用。</p>\n<p><strong>通常情况：</strong>没有本专长的人一旦使用盾牌猛击，直到下个回合都将丧失盾牌对AC的加值。</p>"
		},
		{
			"id": "Improved Sunder",
			"name": "精通破武",
			"description": "<p><em>你善于攻击对手的武器和盔甲。</em></p>\n<p><strong>先决条件：</strong>力量13，猛力攻击，基本攻击加值+1。</p>\n<p><strong>专长效果：</strong>当你使用破武战技时不会引发对手的藉机攻击。此外，你在破武检定上获得+2加值，在对抗破武的战技防御上也获得+2加值。</p>\n<p><strong>通常情况：</strong>你使用破武战技时会引发藉机攻击。</p>"
		},
		{
			"id": "Improved Trip",
			"name": "精通绊摔",
			"description": "<p><em>你擅长将对手送到地上。</em></p>\n<p><strong>先决条件：</strong>智力13，寓守于攻。</p>\n<p><strong>专长效果：</strong>你使用绊摔战技不会引发藉机攻击。此外在绊摔检定上你获得+2加值，在对抗绊摔的战技防御上也获得+2加值。</p>\n<p><strong>通常情况：</strong>你在使用绊摔战技时会引发藉机攻击。</p>"
		},
		{
			"id": "Improved Two-Weapon Fighting",
			"name": "精通双武器格斗",
			"description": "<p><em>你是使用双武器战斗的专家。</em></p>\n<p><strong>先决条件：</strong>敏捷17，双武器格斗，基本攻击加值+6。</p>\n<p><strong>专长效果：</strong>除了原本额外的一次副手攻击外，你还可用副手再多攻击一次，但受-5减值。</p>\n<p><strong>通常情况：</strong>无此专长时副手武器仅能进行一次额外攻击。</p>"
		},
		{
			"id": "Improved Unarmed Strike",
			"name": "精通徒手打击",
			"description": "<p><em>你精通徒手作战的技巧。</em></p>\n<p><strong>专长效果：</strong>即使徒手也视同持有武器，也就是说当你徒手攻击时，不会引发藉机攻击。此外，你可以选择让你的徒手击打造成致命或非致命伤害。</p>\n<p><strong>通常情况：</strong>无此专长者若徒手攻击则视为未武装，也只能造成非致命伤害。</p>"
		},
		{
			"id": "Improved Vital Strike",
			"name": "精通要害打击",
			"description": "<p><em>你可以在一击中造成大量的伤害。</em></p>\n<p><strong>先决条件：</strong>要害打击，基本攻击加值+11。</p>\n<p><strong>专长效果：</strong>你可以用一个标准动作以你的最高BAB做出一次攻击，并造成额外的伤害。丢伤害骰三次并将结果合计，但力量、武器属性（例如〈炽焰〉效果）及基于精准攻击（例如偷袭）带来的伤害增加值不翻倍。本专长带来的额外伤害在重击时不翻倍（尽管其他伤害增加值正常翻倍计算）。</p>"
		},
		{
			"id": "Improvised Weapon Mastery",
			"name": "临时武器熟稔",
			"description": "<p><em>你可以把手边的任何东西转变为致命的武器，从尖利的椅子腿到装满面粉的袋子。</em></p>\n<p><strong>先决条件：</strong>随手武器或随手投掷，基本攻击加值+8。</p>\n<p><strong>专长效果：</strong>你在使用临时武器时不受任何减值。临时武器的伤害骰上升一个级别（例如1d4变为1d6）但最高仅到d8（双手临时武器则最高为2d6）。临时武器重击范围为19-20，重击倍率×2。</p>"
		},
		{
			"id": "Intimidating Prowess",
			"name": "威逼",
			"description": "<p><em>你的力量令他人恐惧。</em></p>\n<p><strong>专长效果：</strong>你的威吓技能检定在魅力调整之外再计入力量修正。</p>"
		},
		{
			"id": "Iron Will",
			"name": "钢铁意志",
			"description": "<i>你有超乎常人的坚强意志。</i><hr><p>专长效果：所有意志豁免获得+2加值。</p>"
		},
		{
			"id": "Leadership",
			"name": "领导力",
			"description": "<p><em>你是他人追随的对象，对于招募部属也有相当的研究。</em></p>\n<p><strong>先决条件：</strong>角色等级7。</p>\n<p><strong>专长效果：</strong>你能吸引一个忠心的部属及许多追随者来协助你。部属通常是一名拥有职业等级的NPC，而追随者则为更低等级的NPC。查看下表确认你能够吸引到的部属等级和追随者数量。</p>"
		},
		{
			"id": "Lightning Reflexes",
			"name": "闪电反射",
			"description": "<i>你的反应力比一般人快。</i><hr><p>专长效果：所有反射豁免获得+2加值。</p>"
		},
		{
			"id": "Lightning Stance",
			"name": "闪电步",
			"description": "<p><em>你移动起来的非凡速度令敌人难以攻击。</em></p>\n<p><strong>先决条件：</strong>敏捷17，闪避，疾风步，基本攻击加值+11。</p>\n<p><strong>专长效果：</strong>若你在一轮中花费2个动作进行移动或一个撤退动作，则你在一轮中获得50%隐蔽。</p>"
		},
		{
			"id": "Lunge",
			"name": "突刺",
			"description": "<p><em>你可以攻击正常触及之外的敌人。</em></p>\n<p><strong>先决条件：</strong>基本攻击加值+6。</p>\n<p><strong>专长效果：</strong>你可以令近战攻击距离增加5尺直到你的回合结束，但直到你的下轮行动时AC受-2减值。你必须在做出任何攻击前宣布使用此能力。</p>"
		},
		{
			"id": "Magical Aptitude",
			"name": "魔法天赋",
			"description": "<p><em>你在释放魔法和使用魔法物品方面有资质。</em></p>\n<p><strong>专长效果：</strong>你的法术辨识与使用魔法装置检定获得+2加值。如果某技能受训等级10以上，则对应的加值改为+4。</p>"
		},
		{
			"id": "Manyshot",
			"name": "多重射击",
			"description": "<p><em>你可对一个目标同时发射数箭。</em></p>\n<p><strong>先决条件：</strong>敏捷17，近距射击，快速射击，基本攻击加值+6。</p>\n<p><strong>专长效果：</strong>当以弓箭做出全力攻击动作时，你的第一击射出两支箭。若攻击检定成功，则两支箭均命中。基于精准攻击的伤害（例如偷袭）和重击伤害在该次攻击中仅计算一次。使用复合长弓时的力量修正，以及其他伤害加值例如游侠的【宿敌】加值，均在每只箭上正常生效。对抗每箭的伤害减免与其他抗力都要分别计算。</p>"
		},
		{
			"id": "Martial Weapon Proficiency",
			"name": "擅长军用武器",
			"description": "<p><em>选择一种军用武器，你熟知如何在战斗中使用此军用武器。</em></p>\n<p><strong>专长效果：</strong>使用该军用武器攻击检定不受减值。</p>\n<p><strong>通常情况：</strong>使用不擅长的武器，攻击检定受-4减值。</p>\n<p><strong>特殊说明：</strong>野蛮人、战士、圣骑士和游侠擅长所有军用武器，不需选择本专长。你可以多次选择本专长，每次对应一种新的军用武器。</p>"
		},
		{
			"id": "Master Craftsman",
			"name": "造物专家",
			"description": "<p><em>你的非凡手艺令你能够制造简单的魔法物品。</em></p>\n<p><strong>先决条件：</strong>任意工艺或专业技能5级</p>\n<p><strong>专长效果：</strong>选择一项你拥有至少5级的工艺或专业技能，获得+2加值。你所选技能的等级可作为你的CL，以满足“制造魔法武器和防具”以及“制造奇物”专长的先决条件。你可以使用这些专长制造魔法物品，以你所选技能的等级作为你的总CL。你必须使用所选的技能进行制造该物品的检定。某些必要的法术需求仍旧会令制造该物品的DC增加（更多信息请参见魔法物品规则）。你无法使用本专长制造任何法术触发型或法术完成型物品。【编注：魔杖属于法术触发型物品，而卷轴则属于法术完成型物品。】</p>\n<p><strong>通常情况：</strong>只有施法者能够选择“制造魔法武器和防具”以及“制造奇物”专长。</p>"
		},
		{
			"id": "Maximize Spell",
			"name": "法术极效",
			"description": "<p><em>你可以将法术的效果发挥到最大。</em></p>\n<p><strong>专长效果：</strong>搭配本专长时，法术效果中所有变量皆以最大值计算。豁免检定和对抗检定不受影响。法术若无变动数值则无影响。极效的法术须占用高于原本3个环位的法术位。配合“法术强效”和“法术极效”的法术，可分别获得两个专长的效果，也就是将检定结果的最大值加上正常检定结果的一半。</p>"
		},
		{
			"id": "Medusa’s Wrath",
			"name": "万蛇出洞",
			"description": "<p><em>你的连续攻击令对手眼花缭乱。</em></p>\n<p><strong>先决条件：</strong>精通徒手打击，蛇形拳，蝎形拳，基本攻击加值+11。</p>\n<p><strong>专长效果：</strong>每当你进行全力攻击并做出至少一次徒手击打攻击时，你可以额外以最高BAB做出两次徒手击打攻击。这些额外攻击必须针对晕眩、措手不及、麻痹、恍惚、震慑或昏迷状态的敌人。</p>"
		},
		{
			"id": "Mobility",
			"name": "灵活移动",
			"description": "<p><em>你善于闪过敌人并躲开攻击。</em></p>\n<p><strong>先决条件：</strong>敏捷13，闪避。</p>\n<p><strong>专长效果：</strong>当你离开敌人的威胁区域或在该范围内移动，引发对方藉机攻击时，你的AC可获得+4闪避加值。若你失去AC的敏捷加值（如果有），也会同时失去闪避加值。各项闪避加值可以累加，这与其他大部分类型加值不同。</p>"
		},
		{
			"id": "Mounted Archery",
			"name": "骑乘射击",
			"description": "<p><em>你善于在骑乘时使用远程武器。</em></p>\n<p><strong>先决条件：</strong>骑术1级，骑乘战斗。</p>\n<p><strong>专长效果：</strong>在骑乘时使用远程武器的减值减为一半。例如，当坐骑以倍速移动时，减值为-2而非-4。坐骑奔跑时，减值为-4而非-8。</p>"
		},
		{
			"id": "Mounted Combat",
			"name": "骑乘战斗",
			"description": "<p><em>你善于骑乘战斗。</em></p>\n<p><strong>先决条件：</strong>骑术1级。</p>\n<p><strong>专长效果：</strong>坐骑被击中时，你可以做一次骑术检定（视为直觉动作），若检定结果大于对手的攻击检定，则该攻击无效。此专长每轮只能使用1次。</p>"
		},
		{
			"id": "Natural Spell",
			"name": "自然施法",
			"description": "<p><em>你可在自然变身状态下施法，即使该形态正常无法施法。</em></p>\n<p><strong>先决条件：</strong>感知13，【自然变身】职业特性。</p>\n<p><strong>专长效果：</strong>你可在自然变身状态下完成法术的言语与姿势。你使用各种声音和动作代替原本法术正常的言语与姿势。你仍旧能够使用任何你拥有的施法材料或器材，即使这些东西已经融进了你现在的形态中。若此型态原本就无法使用某种魔法物品，这项专长并不赋予使用物品的能力，此外本专长也不能让你在自然变身型态时说话。</p>"
		},
		{
			"id": "Nimble Moves",
			"name": "灵狐步",
			"description": "<p><em>你能够轻松越过单独的障碍。</em></p>\n<p><strong>先决条件：</strong>敏捷13。</p>\n<p><strong>专长效果：</strong>当你移动时，你每轮可以像正常地形般穿越5尺的困难地形。本专长允许你使用五尺快步进入困难地形。</p>"
		},
		{
			"id": "Penetrating Strike",
			"name": "穿透打击",
			"description": "<p><em>你的攻击能够穿透某些生物的防御。选择一种你已获得了武器专攻的武器。</em></p>\n<p><strong>先决条件：</strong>武器专攻，基本攻击加值+1，12级战士，擅长对应武器。</p>\n<p><strong>专长效果：</strong>你使用选定武器进行的攻击无视至多5点伤害减免。此专长对无类别的伤害减免无效（比如“10/-”）。</p>"
		},
		{
			"id": "Persuasive",
			"name": "谈判专家",
			"description": "<p><em>你善于动摇态度和胁迫他人按你的想法行事。</em></p>\n<p><strong>专长效果：</strong>你在交涉和威吓技能检定上获得+2加值。如果某技能受训等级10以上，该技能获得的加值提升为+4。</p>"
		},
		{
			"id": "Pinpoint Targeting",
			"name": "精确瞄准",
			"description": "<p><em>你能够瞄准对手盔甲上的弱点。</em></p>\n<p><strong>先决条件：</strong>敏捷19，精通精准射击，近距射击，精准射击，基本攻击加值+16。</p>\n<p><strong>专长效果：</strong>以一个标准动作，做一次单独的远程攻击。目标无法获得任何盔甲、天生护甲或盾牌加值到他的AC上。如果你本轮进行了移动，你无法受益于此专长。</p>"
		},
		{
			"id": "Point-Blank Shot",
			"name": "近距射击",
			"description": "<p><em>你对远程攻击近程目标颇有心得。</em></p>\n<p><strong>专长效果：</strong>你使用远程武器攻击30尺内的目标时在攻击和伤害检定上获得+1加值。</p>"
		},
		{
			"id": "Power Attack",
			"name": "猛力攻击",
			"description": "<p><em>通过牺牲准度来换取力道，你能够做出异常致命的近战攻击。</em></p>\n<p><strong>先决条件：</strong>力量13，基本攻击加值+1。</p>\n<p><strong>专长效果：</strong>你可以选择在所有近战攻击和战技检定上承受-1减值，以在所有近战伤害检定上获得+2加值。如果你进行攻击时使用的是双手武器、双手持用的单手武器或可在伤害检定上加上1.5倍力量修正的主要天生武器，此伤害加值提升一半（+50%）。如果你进行攻击时使用的是副手武器或次要天生武器，此伤害加值减半（-50%）。当你的BAB达到+4，和以后的每4点提升，攻击减值再-1，伤害加值再+2。你必须在进行攻击检定前选择使用此专长，其效果持续到你的下回合之前。接触攻击和不造成生命点数伤害的效果无法获得伤害加值。</p>"
		},
		{
			"id": "Precise Shot",
			"name": "精准射击",
			"description": "<p><em>你擅长向近战中进行远程攻击。</em></p>\n<p><strong>先决条件：</strong>近距射击。</p>\n<p><strong>专长效果：</strong>你对近战中的对手射击或投掷远程武器时不需在攻击检定上承受标准的-4减值。</p>"
		},
		{
			"id": "Quick Draw",
			"name": "即时备战",
			"description": "<p><em>你能够比大多数人更快的拔出武器。</em></p>\n<p><strong>先决条件：</strong>基本攻击加值+1。</p>\n<p><strong>专长效果：</strong>你能够以自由动作而不是移动动作拔出一把武器。你能够以移动动作拔出一把隐藏的武器（见巧手技能）。选择此专长的人物能以他的正常攻击频率投掷武器（如同使用弓的人物一样）。炼金物品、药水、卷轴和魔杖不能用此专长快速拿取。</p>\n<p><strong>通常情况：</strong>没有此专长，你拔出一把武器是移动动作，或做为移动一部分的自由动作（如果你的BAB+1以上）。没有此专长，你拔出一把隐藏的武器是标准动作。</p>"
		},
		{
			"id": "Quicken Spell",
			"name": "法术瞬发",
			"description": "<p><em>你能够在一瞬间施展法术。</em></p>\n<p><strong>专长效果：</strong>施展瞬发法术是迅捷动作。在施展瞬发法术的同一轮里，你可以做另一个动作，甚至施展另一个法术。施法时间超过1个整轮动作的法术无法被瞬发。瞬发法术占用比该法术实际等级高4环的法术位。施展瞬发法术不会触发藉机攻击。</p>\n<p><strong>特殊说明：</strong>你能够将此专长的效果应用于自发施展的法术，只要其施法时间不超过1个整轮动作，这样做不会增加该法术的施法时间。</p>"
		},
		{
			"id": "Rapid Reload",
			"name": "快速装填",
			"description": "<p><em>选择一种弩（手弩、轻弩或重弩）。你能够快速装填该武器。</em></p>\n<p><strong>先决条件：</strong>武器擅长（选定类型的弩）。</p>\n<p><strong>专长效果：</strong>你装填选定类型的弩所需的时间降为自由动作（对手弩或轻弩而言）或移动动作（对重弩而言）。装填弩仍然会触发藉机攻击。如果你为手弩或轻弩选择了此专长，全力攻击时你能像使用弓一样进行多次射击。</p>\n<p><strong>通常情况：</strong>没有此专长的人物装填手弩或轻弩是移动动作，装填重弩是整轮动作。</p>\n<p><strong>特殊说明：</strong>你能够多次选取本专长。每次你获得此专长时，它作用于一种新类型的弩。</p>"
		},
		{
			"id": "Rapid Shot",
			"name": "快速射击",
			"description": "<p><em>你能够进行一次额外的远程攻击。</em></p>\n<p><strong>先决条件：</strong>敏捷13，近距射击。</p>\n<p><strong>专长效果：</strong>使用远程武器进行全力攻击时，你在该轮能够以你最高的加值多射击一次。使用速射时，你的所有攻击检定承受-2减值。</p>"
		},
		{
			"id": "Ride-by Attack",
			"name": "骑乘掠击",
			"description": "<p><em>骑乘冲锋时，你能够移动，攻击，然后继续移动。</em></p>\n<p><strong>先决条件：</strong>骑术1级，骑乘战斗。</p>\n<p><strong>专长效果：</strong>骑乘冲锋时，你可以如同标准冲锋一样移动并攻击，然后再次移动（沿着冲锋的直线路径）。你该轮总的移动距离不能超过骑乘速度的两倍。你和你的坐骑不会触发你所攻击目标的藉机攻击。</p>"
		},
		{
			"id": "Run",
			"name": "飞跑",
			"description": "<p><em>你是个飞毛腿。</em></p>\n<p><strong>专长效果：</strong>奔跑时，你移动正常速度的五倍（如果穿着中甲、轻甲或无甲并且没有超过中载）或四倍（如果穿着重甲或重载）。如果你助跑后再跳跃（见特技技能说明），你在杂技检定上获得+4加值。奔跑时，你保留敏捷加值到你的AC上。</p>\n<p><strong>通常情况：</strong>奔跑时，你移动正常速度的四倍（如果穿着中甲、轻甲或无甲并且没有超过中载）或三倍（如果穿着重甲或重载），并且你失去AC上的敏捷加值。</p>"
		},
		{
			"id": "Scorpion Style",
			"name": "蝎形拳",
			"description": "<p><em>你的徒手击打能够严重妨碍目标的移动。</em></p>\n<p><strong>先决条件：</strong>精通徒手打击。</p>\n<p><strong>专长效果：</strong>要使用此专长，你必须用标准动作做一次单一的徒手攻击。如果此徒手攻击命中，你正常造成伤害，且目标的基本陆地速度降为5尺，持续轮数等同于你的感知修正，除非其通过DC为“10+1/2你的角色等级+感知修正”的强韧豁免检定。</p>"
		},
		{
			"id": "Scribe Scroll",
			"name": "抄写卷轴",
			"description": "<p><em>你能够制造魔法卷轴。</em></p>\n<p><strong>先决条件：</strong>施法者等级1级。</p>\n<p><strong>专长效果：</strong>你能够制造你所知任意法术的卷轴。如果卷轴的基础价格为250 gp或以下，抄录需要2小时，否则每1000gp的基础价格需要1天。要想抄写卷轴，你必须花费价值为其基础价格一半的原材料。更多信息请参见魔法物品规则。</p>"
		},
		{
			"id": "Selective Channeling",
			"name": "选择导能",
			"description": "<p><em>你引导能量时能够选择要影响谁。</em></p>\n<p><strong>先决条件：</strong>魅力13，【引导能量】职业特性。</p>\n<p><strong>专长效果：</strong>当你引导能量时，你可以选择区域中数量至多等同于你魅力修正的目标。这些目标不受你引导能量的影响。</p>\n<p><strong>通常情况：</strong>当你引导能量时，所有30尺爆发范围内的目标都会受到影响。你只能选择自己是否要受到影响。</p>"
		},
		{
			"id": "Self-Sufficient",
			"name": "自给自足",
			"description": "<p><em>你知道如何在野外生存和如何有效的治疗伤口。</em></p>\n<p><strong>专长效果：</strong>你在医疗和生存技能检定上获得+2加值。如果某技能受训等级10以上，该技能获得的加值提升为+4。</p>"
		},
		{
			"id": "Shatter Defenses",
			"name": "粉碎防御",
			"description": "<p><em>你使用选定武器的技巧能够让露出破绽的对手门户大开。</em></p>\n<p><strong>先决条件：</strong>武器专攻，炫目技巧，基本攻击加值+6，擅长对应武器。</p>\n<p><strong>专长效果：</strong>任何本轮被你击中的处于战栗、惊惧或恐慌状态的对手，直到你的下个回合结束，对于你做出的攻击处于措手不及状态。这包括你本轮进行的任何额外的攻击。</p>"
		},
		{
			"id": "Shield Focus",
			"name": "盾牌专攻",
			"description": "<p><em>你善于用盾牌偏转攻击。</em></p>\n<p><strong>先决条件：</strong>擅长盾牌，基本攻击加值+1。</p>\n<p><strong>专长效果：</strong>你由盾牌获得的AC加值+1。</p>"
		},
		{
			"id": "Shield Master",
			"name": "盾牌大师",
			"description": "<p><em>你对盾牌的掌握使得你可以不受妨碍的用盾战斗。</em></p>\n<p><strong>先决条件：</strong>精通盾击，擅长盾牌，盾牌猛击，双武器格斗，基本攻击加值+11。</p>\n<p><strong>专长效果：</strong>当持用另一把武器时，你使用盾牌的攻击检定不会承受任何减值。将盾牌的AC增强加值加到用盾牌做出的攻击和伤害检定上，如同它是武器增强加值一样。</p>"
		},
		{
			"id": "Shield Proficiency",
			"name": "擅长盾牌",
			"description": "<p><em>当你使用盾牌（塔盾除外）时，盾牌的防具检定减值只用于基于力量和敏捷的技能。</em></p>\n<p><strong>专长效果：</strong>当你使用盾牌（塔盾除外）时，盾牌的防具检定减值只用于基于力量和敏捷的技能。</p>\n<p><strong>通常情况：</strong>当你使用不擅长的盾牌时，你在攻击检定和所有涉及移动的技能检定上承受盾牌的防具检定减值。</p>\n<p><strong>特殊说明：</strong>野蛮人、吟游诗人、牧师、德鲁伊、战士、圣骑士和游侠都自动获得擅长盾牌做为奖励专长。他们不需选择它。</p>"
		},
		{
			"id": "Shield Slam",
			"name": "盾牌猛冲",
			"description": "<p><em>只要地形合适，你能用盾牌让对手飞起来。</em></p>\n<p><strong>先决条件：</strong>精通盾击，擅长盾牌，双武器格斗，基本攻击加值+6。</p>\n<p><strong>专长效果：</strong>任何被你盾击命中的对手也受到一次自由动作的冲撞攻击，用这次攻击检定的结果来替代战技检定。这次冲撞不会触发藉机攻击。因墙或其他表面不能后退的对手在移动最大的可行距离后被击倒在地。如果你本轮能够做一次五尺快步或花费一个动作来移动，你可以选择跟随你的目标移动。</p>"
		},
		{
			"id": "Sickening Critical",
			"name": "恶心重击",
			"description": "<p><em>你的重击能让对手恶心。</em></p>\n<p><strong>先决条件：</strong>重击专攻，基本攻击加值+11。</p>\n<p><strong>专长效果：</strong>在没有掌握“重击熟稔”专长前，每次重击时你只能选择一种重击专长效果。</p>"
		},
		{
			"id": "Silent Spell",
			"name": "法术默发",
			"description": "<p><em>你能够不发生声音施展法术。</em></p>\n<p><strong>专长效果：</strong>法术施展时不需言语成分。没有言语成分的法术不受影响。默发法术占用比该法术实际等级高1环的法术位。</p>\n<p><strong>特殊说明：</strong>吟游诗人的法术不能用此专长强化。</p>"
		},
		{
			"id": "Simple Weapon Proficiency",
			"name": "擅长简易武器",
			"description": "<p><em>你受过使用基础武器的训练。</em></p>\n<p><strong>专长效果：</strong>你使用简易武器的攻击检定不承受减值。</p>\n<p><strong>通常情况：</strong>当使用你不擅长的武器时，你在攻击检定上承受-4减值。</p>\n<p><strong>特殊说明：</strong>除德鲁伊、武僧和法师外的所有人物自动擅长所有简易武器。他们不需选择此专长。</p>"
		},
		{
			"id": "Skill Focus",
			"name": "技能专攻",
			"description": "<p><em>选择一项技能。你特别擅长该技能。</em></p>\n<p><strong>专长效果：</strong>你在所有涉及该技能的检定上获得+3加值。如果你该技能的等级为10或更高，此加值提升为+6。</p>\n<p><strong>特殊说明：</strong>你可以多次选取此专长。其效果不叠加。每次你获得此专长时，它作用于一种新技能。</p>"
		},
		{
			"id": "Snatch Arrows",
			"name": "抓取飞箭",
			"description": "<p><em>你能够接住半空中的箭支或远程武器，而不是把它震到一旁。</em></p>\n<p><strong>先决条件：</strong>敏捷15，拨挡飞箭，精通徒手打击。</p>\n<p><strong>专长效果：</strong>当使用“拨挡飞箭”专长时你可以选择抓住那武器而不仅仅只是偏转它。投掷武器可以立刻被扔回去，视为对原攻击者的一次攻击（即使不是你的行动轮）或留下来在以后使用。你必须至少空出一只手（不拿任何东西）来使用此专长。</p>"
		},
		{
			"id": "Spell Focus",
			"name": "法术专攻",
			"description": "<p><em>选择一种魔法学派。你施展的该学派法术更难抵抗。</em></p>\n<p><strong>专长效果：</strong>所有对抗你选定魔法学派的法术的豁免检定DC+1。</p>\n<p><strong>特殊说明：</strong>你可以多次选取此专长。其效果不叠加。每次你获得此专长时，它作用于一种新的魔法学派。</p>"
		},
		{
			"id": "Spell Penetration",
			"name": "法术穿透",
			"description": "<p><em>你的法术比大多数的法术更容易穿透法术抗力。</em></p>\n<p><strong>专长效果：</strong>你在克服生物法术抗力的施法者等级检定（1d20+CL）上获得+2加值。</p>"
		},
		{
			"id": "Spellbreaker",
			"name": "破法者",
			"description": "<p><em>当你威胁到敌人的施法者时，如果他们防御施法失败，你能够对他们进行攻击。</em></p>\n<p><strong>先决条件：</strong>扰法者，战士10级。</p>\n<p><strong>专长效果：</strong>在你威胁范围内防御施法检定失败的敌人会触发你的藉机攻击。</p>\n<p><strong>通常情况：</strong>防御施法失败的敌人不会触发藉机攻击</p>"
		},
		{
			"id": "Spirited Charge",
			"name": "奋力冲锋",
			"description": "<p><em>你的骑乘冲锋攻击能造成大量的伤害。</em></p>\n<p><strong>先决条件：</strong>骑乘1级，骑乘战斗，骑乘掠击。</p>\n<p><strong>专长效果：</strong>当在骑乘时使用冲锋动作，你使用近战武器造成双倍伤害（持用长枪则是三倍）。</p>"
		},
		{
			"id": "Spring Attack",
			"name": "跳跃攻击",
			"description": "<p><em>你能够巧妙的接近一个敌人，攻击，然后在他反应之前撤退。</em></p>\n<p><strong>先决条件：</strong>敏捷13，闪避，灵活移动，基本攻击加值+4。</p>\n<p><strong>专长效果：</strong>以一个全回合动作，你能够移动至多等同于你速度的距离并做一次单次的近战攻击，这不会触发你所攻击目标的藉机攻击。你在攻击之前和之后都可以移动，但你在攻击前必须至少移动10尺，并且你移动的总距离不可以超过你的速度。你不可以使用此能力攻击在你回合开始时就和你相邻的敌人。</p>\n<p><strong>通常情况：</strong>你不可以在攻击之前和之后都移动。</p>"
		},
		{
			"id": "Staggering Critical",
			"name": "恍惚重击",
			"description": "<p><em>你的重击能让对手慢下来。</em></p>\n<p><strong>先决条件：</strong>重击专攻，基本攻击加值+13。</p>\n<p><strong>专长效果：</strong>每当你造成重击时，你的对手陷入恍惚“1d4+1”轮。一次成功的强韧豁免将持续时间减为1轮。强韧豁免的DC等于“10+你的BAB”。此专长的效果不会叠加，额外的命中改为延长持续时间。</p>\n<p><strong>特殊说明：</strong>在没有掌握“重击熟稔”专长前，每次重击时你只能选择一种重击专长效果。</p>"
		},
		{
			"id": "Stand Still",
			"name": "通行禁止",
			"description": "<p><em>你能够拦下试图从你旁边经过的敌人。</em></p>\n<p><strong>先决条件：</strong>战斗反射。</p>\n<p><strong>专长效果：</strong>当一个敌人因经过你的邻近区域而触发藉机攻击时，你可以做一次战技检定来做为藉机攻击。如果成功，敌人在他回合的剩余部分内不能移动。敌人仍然可以做他动作的剩余部分，但就是不能移动。此专长也可应用于任何试图从你相邻区域移开的生物，如果该移动会触发藉机攻击。</p>"
		},
		{
			"id": "Stealthy",
			"name": "隐秘",
			"description": "<p><em>你对避开不必要的注意和逃脱束缚很拿手。</em></p>\n<p><strong>专长效果：</strong>你在所有脱逃和隐匿技能检定上获得+2加值。如果某技能受训等级10以上，该技能获得的加值提升为+4。</p>"
		},
		{
			"id": "Step Up",
			"name": "快步跟进",
			"description": "<p><em>当敌人想移开时你能够跟上去。</em></p>\n<p><strong>先决条件：</strong>基本攻击加值+1。</p>\n<p><strong>专长效果：</strong>每当一个邻近的敌人试图做一个五尺快步远离你时，你能以直觉动作也做一个五尺快步，只要你结束移动时和触发此能力的敌人相邻。如果你做了此种移动，你下一回合不能做五尺快步。如果你下一回合进行了移动，从你的总移动距离里面减去5尺。</p>"
		},
		{
			"id": "Still Spell",
			"name": "法术定发",
			"description": "<p><em>你能够不做动作施展法术。</em></p>\n<p><strong>专长效果：</strong>法术施展时不需姿势成分。没有姿势成分的法术不受影响。定发法术占用比该法术实际等级高1环的法术位。</p>"
		},
		{
			"id": "Strike Back",
			"name": "回击",
			"description": "<p><em>当他们攻向你时，通过瞄准他们的肢体或武器，你能够击打使用长触及攻击你的敌人。</em></p>\n<p><strong>先决条件：</strong>基本攻击加值+11。</p>\n<p><strong>专长效果：</strong>你可以做一个准备动作来对以近战攻击你的任何敌人做一次近战攻击，即使该敌人在你的触及外。</p>"
		},
		{
			"id": "Stunning Critical",
			"name": "震慑重击",
			"description": "<p><em>你的重击能震慑对手。</em></p>\n<p><strong>先决条件：</strong>重击专攻，恍惚重击，基本攻击加值+17。</p>\n<p><strong>专长效果：</strong>每当你造成重击时，你的对手被震慑1d4轮。一次成功的强韧豁免将此效果降为恍惚1d4轮。强韧豁免的DC等于“10+你的BAB”。此专长的效果不会叠加。额外的命中改为延长持续时间。</p>\n<p><strong>特殊说明：</strong>在没有掌握“重击熟稔”专长前，每次重击时你只能选择一种重击专长效果。</p>"
		},
		{
			"id": "Stunning Fist ",
			"name": "震慑拳",
			"description": "<p><em>你知道攻击哪里可以暂时瘫痪一个人的行动。</em></p>\n<p><strong>先决条件：</strong>敏捷13，感知13，精通徒手打击，基本攻击加值+8。</p>\n<p><strong>专长效果：</strong>你必须在投掷攻击骰之前宣告使用此专长（因此，未命中会导致尝试失败）。震慑拳在正常造成伤害的同时，还会强制受到你徒手击打伤害的敌人进行一次DC为“10+1/2你的角色等级+感知修正”的强韧豁免检定。豁免检定失败的防御者将被震慑1轮（直到你的下一轮开始前）。被震慑的人物不能行动，失去AC上的任何敏捷加值，并且AC承受-2减值。每4级你每天可以多尝试一次震慑攻击（见特殊），每轮不能超过1次。构装、泥怪、植物、不死、虚体生物和免疫重击的生物不会被震慑。</p>\n<p><strong>特殊说明：</strong>武僧1级时获得“震慑拳”做为奖励专长，即使他不满足所需先决条件。武僧每天可尝试的震慑攻击的次数等同于他的武僧等级，再加上每天每4个非武僧职业等级1次。</p>"
		},
		{
			"id": "Throw Anything",
			"name": "随手投掷",
			"description": "<p><em>你擅长投掷手中的物品。</em></p>\n<p><strong>专长效果：</strong>你使用临时远程武器时无减值。你在溅射武器的攻击检定上获得+1环境加值。</p>\n<p><strong>通常情况：</strong>你在使用临时武器时攻击检定受-4减值。</p>"
		},
		{
			"id": "Tiring Critical",
			"name": "疲乏重击",
			"description": "<p><em>你的重击令对手疲乏。</em></p>\n<p><strong>先决条件：</strong>重击专攻，基本攻击加值+13。</p>\n<p><strong>专长效果：</strong>每当你对一个敌人成功造成重击时，会令该生物陷入疲乏状态。此专长对已陷入疲乏或力竭的生物无效。</p>\n<p><strong>特殊说明：</strong>在没有掌握“重击熟稔”专长前，每次重击时你只能选择一种重击专长效果。</p>"
		},
		{
			"id": "Toughness",
			"name": "健壮",
			"description": "<i>你比一般人更健壮。</i><hr><p>专长效果：你的HP增加3点，且你的生命骰每比3HD高1级便额外获得1点HP。由生命骰高于3开始，每次你获得一个新的生命骰（例如当你获得一个新的等级）时你都额外获得1点HP。</p>"
		},
		{
			"id": "Tower Shield Proficiency",
			"name": "擅长塔盾",
			"description": "<p><em>你善于使用塔盾。</em></p>\n<p><strong>先决条件：</strong>擅长盾牌。</p>\n<p><strong>专长效果：</strong>使用塔盾时防具检定减值仅作用于基于力量和敏捷的技能。【编注：攻击依然-2。】</p>\n<p><strong>通常情况：</strong>人物使用不擅长的盾牌时，攻击检定和所有移动相关的技能检定（包括骑术）都受到盾牌的防具检定减值。</p>\n<p><strong>特殊说明：</strong>战士无需选择可以直接获得“擅长塔盾”作为奖励专长。</p>"
		},
		{
			"id": "Trample",
			"name": "践踏",
			"description": "<p><em>你善于使用坐骑压过对手。</em></p>\n<p><strong>先决条件：</strong>骑术1级、骑乘战斗。</p>\n<p><strong>专长效果：</strong>若你骑乘坐骑时闯越对手，他将无法躲避。如果对手因而倒地，你的坐骑可以对他做一次蹄踢攻击。一般而言攻击倒地的目标，攻击检定有+4加值。</p>"
		},
		{
			"id": "Turn Undead",
			"name": "驱散死灵",
			"description": "<p><em>你释放出神圣能量，令不死生物逃窜。</em></p>\n<p><strong>先决条件：</strong>【引导正能量】职业特性。</p>\n<p><strong>专长效果：</strong>你可以用一个标准动作，消耗你引导正能量的1次可用次数，令30尺内的所有不死生物逃离你，视同陷入恐慌状态。不死生物需要通过意志检定来避免此效果，DC等于“10+1/2牧师等级+魅力修正”。豁免失败的不死生物会逃窜1分钟。有智力的不死生物可以每轮进行新的检定以结束此效果。若你以此方式使用引导能量，则其不会产生其他的效果（不会治疗或伤害附近的生物）。</p>"
		},
		{
			"id": "Two-Weapon Defense",
			"name": "双武器防御",
			"description": "<p><em>你的双武器战斗风格可攻可守。</em></p>\n<p><strong>先决条件：</strong>敏捷15，双武器格斗。</p>\n<p><strong>专长效果：</strong>使用双头武器或双武器时（不包含天生武器或徒手击打），AC获得+1盾牌加值。当你使用防御式战斗或全防御时，此盾牌加值增为+2。</p>"
		},
		{
			"id": "Two-Weapon Fighting",
			"name": "双武器格斗",
			"description": "<p><em>你可以用双武器进行战斗，每轮可用副手武器进行一次额外攻击。</em></p>\n<p><strong>先决条件：</strong>敏捷15。</p>\n<p><strong>专长效果：</strong>当你使用双武器攻击，主手的攻击检定减值减少2，副手则减少6。参见双武器战斗规则。</p>\n<p><strong>通常情况：</strong>若你用副手持有第二把武器，你可以每轮用该武器做出一次额外攻击。当你如此做时你的主手正常攻击（一次或多次）受-6减值，副手受-10减值。若你副手武器为轻型武器，则双手减值均减少2。徒手攻击视同轻型武器。</p>"
		},
		{
			"id": "Two-Weapon Rend",
			"name": "双武器撕裂",
			"description": "<p><em>同时以两把武器攻击命中时，你可以造成严重的伤口。</em></p>\n<p><strong>先决条件：</strong>敏捷17，双重切割，精通双武器格斗，基本攻击加值+11。</p>\n<p><strong>专长效果：</strong>若你主手武器和副手武器的攻击都命中对手，则你额外造成“1d10+1.5倍力量修正”的伤害。每轮你仅可造成此额外伤害1次。</p>"
		},
		{
			"id": "Unseat",
			"name": "落马击",
			"description": "<p><em>你擅长将骑乘对手击落马下。</em></p>\n<p><strong>先决条件：</strong>力量13，骑乘1级，骑乘战斗，猛力攻击，精通冲撞，基本攻击加值+1。</p>\n<p><strong>专长效果：</strong>当骑乘并使用长枪对敌人进行冲锋时，照常计算攻击检定。但若攻击命中，你在正常的伤害之外，可以立即进行一次冲撞尝试。若检定成功，则目标被从马上击落倒地在临近他的坐骑且直线远离你的位置。</p>"
		},
		{
			"id": "Vital Strike",
			"name": "要害打击",
			"description": "<p><em>你在一击中造成明显超乎寻常的伤害。</em></p>\n<p><strong>先决条件：</strong>基本攻击加值+6。</p>\n<p><strong>专长效果：</strong>你能以一个攻击动作，利用你的最高基本攻击加值做出一次可造成额外伤害的攻击。该次攻击扔武器伤害骰两次并相加，之后再加算力量、武器能力（例如〔炽焰〕附魔），基于精准的伤害和其它伤害加值。本专长带来的额外武器伤害在重击时不翻倍，而只加在总值上。</p>"
		},
		{
			"id": "Weapon Finesse",
			"name": "武器娴熟",
			"description": "<p><em>你善于在近身战斗中使用敏捷代替蛮力。</em></p>\n<p><strong>专长效果：</strong>使用适于你体型的轻型武器、细剑、长鞭、刺链时，你可以在攻击检定中改为使用敏捷修正，而非力量修正。若你持用盾牌，攻击检定会受到盾牌的防具检定减值。</p>\n<p><strong>特殊说明：</strong>天生武器视为轻型武器。</p>"
		},
		{
			"id": "Weapon Focus",
			"name": "武器专攻",
			"description": "<p><em>选择一种武器。你同样可以选择徒手击打或擒抱（若你能施法，也可选择“射线”）作为本专长选择的武器类型。</em></p>\n<p><strong>先决条件：</strong>使用专攻的武器时攻击检定+1。</p>\n<p><strong>专长效果：</strong>使用专攻的武器时攻击检定+1。</p>\n<p><strong>特殊说明：</strong>你可以多次选择本专长，其效果并不累加。每次你都必须选择不同种类的武器。</p>"
		},
		{
			"id": "Weapon Specialization",
			"name": "武器专精",
			"description": "<p><em>你善于使用特定类型的武器造成伤害。从已有“武器专攻”的武器中选择一个（包括徒手击打和擒抱），使用此种武器将可造成更多伤害。</em></p>\n<p><strong>先决条件：</strong>擅长对应武器，武器专攻，战士4级。</p>\n<p><strong>专长效果：</strong>使用专精的武器时伤害检定+2。</p>\n<p><strong>特殊说明：</strong>你可以多次选择本专长，其效果并不累加。每次你都必须选择不同种类的武器。</p>"
		},
		{
			"id": "Whirlwind Attack",
			"name": "旋风攻击",
			"description": "<p><em>你可以在一击中攻击所有可及的敌人。</em></p>\n<p><strong>先决条件：</strong>敏捷13，智力13，寓守于攻，闪避，灵活移动，跳跃攻击，基本攻击加值+4。</p>\n<p><strong>专长效果：</strong>当你进行全力攻击时，你可以放弃所有正常攻击，改以最高BAB对攻击范围内所有敌人做一次近战攻击。你必须对每个敌人单独进行一次攻击检定。当使用本专长时，你同时放弃其他专长、法术或能力所赋予你的任何额外攻击次数。</p>"
		},
		{
			"id": "Widen Spell",
			"name": "法术扩展",
			"description": "<p><em>你可增加自己法术的影响范围。</em></p>\n<p><strong>专长效果：</strong>你可增加爆发、弥漫、直线或扩散型的法术影响区域。法术的所有范围类数值加倍。扩展的法术须占用高于原本3个环位的法术位。没有上列四类影响范围的法术不受本专长影响。</p>"
		},
		{
			"id": "Wind Stance",
			"name": "疾风步",
			"description": "<p><em>你移动时步伐飘忽不定，令敌人难以瞄准你的位置。</em></p>\n<p><strong>先决条件：</strong>敏捷15，闪避，基本攻击加值+6。</p>\n<p><strong>专长效果：</strong>若你在一轮中移动超过5尺，则该轮中你针对远程攻击获得20％隐蔽。</p>"
		}
	]
}